…
## Gene tables

The API allows retrieval of curated genes where there is a single gene
per observation:

``` r
curatedGenes(oncokb)
#> # A tibble: 725 × 13
#>    grch37Isoform   grch37RefSeq   grch38Isoform   grch38RefSeq   entrezGeneId hugoSymbol oncogene highest…¹ highe…² summary backg…³ tsg   highe…⁴
#>    <chr>           <chr>          <chr>           <chr>                 <int> <chr>      <lgl>    <chr>     <chr>   <chr>   <chr>   <lgl> <chr>  
#>  1 ENST00000318560 NM_005157.4    ENST00000318560 NM_005157.4              25 ABL1       TRUE     "1"       "R1"    ABL1, … "ABL1 … FALSE "R1"   
#>  2 ENST00000502732 NM_007314.3    ENST00000502732 NM_007314.3              27 ABL2       TRUE     ""        ""      ABL2, … "ABL2 … FALSE ""     
#>  3 ENST00000321945 NM_139076.2    ENST00000321945 NM_139076.2           84142 ABRAXAS1   FALSE    ""        ""      ABRAXA… "The A… TRUE  ""     
#>  4 ENST00000331925 NM_001199954.1 ENST00000573283 NM_001199954.1           71 ACTG1      FALSE    ""        ""      ACTG1,… "ACTG1… TRUE  ""     
#>  5 ENST00000263640 NM_001111067.2 ENST00000263640 NM_001111067.2           90 ACVR1      TRUE     ""        ""      ACVR1,… "ACVR1… FALSE ""     
#>  6 ENST00000396623 NM_144650      ENST00000396623 NM_144650            137872 ADHFE1     TRUE     ""        ""      ADHFE1… "ADHFE… FALSE ""     
#>  7 ENST00000265343 NM_014423      ENST00000265343 NM_014423             27125 AFF4       TRUE     ""        ""      AFF4, … "AFF4 … FALSE ""     
#>  8 ENST00000373204 NM_012199.2    ENST00000373204 NM_012199.2           26523 AGO1       TRUE     ""        ""      AGO1, … "AGO1 … FALSE ""     
#>  9 ENST00000220592 NM_012154.3    ENST00000220592 NM_012154.3           27161 AGO2       FALSE    ""        ""      AGO2, … "AGO2 … FALSE ""     
#> 10 ENST00000262713 NM_032876.5    ENST00000262713 NM_032876.5           84962 AJUBA      FALSE    ""        ""      AJUBA,… "AJUBA… TRUE  ""     
#> # … with 715 more rows, and abbreviated variable names ¹​highestSensitiveLevel, ²​highestResistanceLevel, ³​background, ⁴​highestResistancLevel
```

and a long list of genes associated with cancer where there can be
multiple entries for the same `hugoSymbol` due to multiple
`geneAliases`:

``` r
cancerGeneList(oncokb)
#> # A tibble: 3,019 × 17
#>    hugoSymbol entrezGeneId grch37…¹ grch3…² grch3…³ grch3…⁴ oncok…⁵ occur…⁶ mSKIm…⁷ mSKHeme found…⁸ found…⁹ vogel…˟ sange…˟ geneA…˟ tsg   oncog…˟
#>    <chr>             <int> <chr>    <chr>   <chr>   <chr>   <lgl>     <int> <lgl>   <lgl>   <lgl>   <lgl>   <lgl>   <lgl>   <list>  <lgl> <lgl>  
#>  1 ABL1                 25 ENST000… NM_005… ENST00… NM_005… TRUE          7 TRUE    TRUE    TRUE    TRUE    TRUE    TRUE    <chr>   FALSE TRUE   
#>  2 ABL1                 25 ENST000… NM_005… ENST00… NM_005… TRUE          7 TRUE    TRUE    TRUE    TRUE    TRUE    TRUE    <chr>   FALSE TRUE   
#>  3 ABL1                 25 ENST000… NM_005… ENST00… NM_005… TRUE          7 TRUE    TRUE    TRUE    TRUE    TRUE    TRUE    <chr>   FALSE TRUE   
#>  4 AKT1                207 ENST000… NM_001… ENST00… NM_001… TRUE          7 TRUE    TRUE    TRUE    TRUE    TRUE    TRUE    <chr>   FALSE TRUE   
#>  5 AKT1                207 ENST000… NM_001… ENST00… NM_001… TRUE          7 TRUE    TRUE    TRUE    TRUE    TRUE    TRUE    <chr>   FALSE TRUE   
#>  6 AKT1                207 ENST000… NM_001… ENST00… NM_001… TRUE          7 TRUE    TRUE    TRUE    TRUE    TRUE    TRUE    <chr>   FALSE TRUE   
#>  7 AKT1                207 ENST000… NM_001… ENST00… NM_001… TRUE          7 TRUE    TRUE    TRUE    TRUE    TRUE    TRUE    <chr>   FALSE TRUE   
#>  8 AKT1                207 ENST000… NM_001… ENST00… NM_001… TRUE          7 TRUE    TRUE    TRUE    TRUE    TRUE    TRUE    <chr>   FALSE TRUE   
#>  9 ALK                 238 ENST000… NM_004… ENST00… NM_004… TRUE          7 TRUE    TRUE    TRUE    TRUE    TRUE    TRUE    <chr>   FALSE TRUE   
#> 10 AMER1            139285 ENST000… NM_152… ENST00… NM_152… TRUE          7 TRUE    TRUE    TRUE    TRUE    TRUE    TRUE    <chr>   TRUE  FALSE  
#> # … with 3,009 more rows, and abbreviated variable names ¹​grch37Isoform, ²​grch37RefSeq, ³​grch38Isoform, ⁴​grch38RefSeq, ⁵​oncokbAnnotated,
#> #   ⁶​occurrenceCount, ⁷​mSKImpact, ⁸​foundation, ⁹​foundationHeme, ˟​vogelstein, ˟​sangerCGC, ˟​geneAliases, ˟​oncogene
```
…
